Capítulo 11 Pesquisa bibliográfica e Bibliometria | Análises de Dados com R
…
## 65 STEPANKOVA S 2015    1  19   2.1111111
## 66 STEPANKOVA S 2016    2  33   4.1250000
## 67 STEPANKOVA S 2018    1  12   2.0000000
## 68 STEPANKOVA S 2020    3  13   3.2500000
## 69 STEPANKOVA S 2021    2  11   3.6666667
## 70 STEPANKOVA S 2022    1   1   0.5000000
## 71    TASLIMI P 2016    5 533  66.6250000
## 72    TASLIMI P 2017    8 636  90.8571429
## 73    TASLIMI P 2018    9 544  90.6666667
## 74    TASLIMI P 2019    5 353  70.6000000
## 75    TASLIMI P 2021    1  29   9.6666667
## 76    TASLIMI P 2022    4   5   2.5000000
## 
## $dfPapersAU
## # A tibble: 186 × 7
##    Author    year TI                                                                             SO    DOI      TC  TCpY
##    <chr>    <dbl> <chr>                                                                          <chr> <chr> <dbl> <dbl>
##  1 GULCIN I  2022 EVALUATION OF ANTICHOLINERGIC, ANTIDIABETIC AND ANTIOXIDANT ACTIVITY OF ASTRA… KSU … 10.1…     0  0   
##  2 GULCIN I  2021 DETERMINATION OF ANTICANCER PROPERTIES AND INHIBITORY EFFECTS OF SOME METABOL… JOUR… 10.1…    29  9.67
##  3 GULCIN I  2020 ANTICHOLINERGIC AND ANTIOXIDANT ACTIVITIES OF AVOCADO (FOLIUM PERSEAE) LEAVES… INTE… 10.1…    24  6   
##  4 GULCIN I  2020 SYNTHESIS AND PHARMACOLOGICAL EFFECTS OF NOVEL BENZENESULFONAMIDES CARRYING B… TURK… 10.3…     4  1   
##  5 GULCIN I  2020 SCREENING OF NON-ALKALOID ACETYLCHOLINESTERASE AND CARBONIC ANHYDRASE ISOENZY… JOUR… 10.1…     3  0.75
##  6 GULCIN I  2019 THE IMPACTS OF SOME SEDATIVE DRUGS ON ALPHA -GLYCOSIDASE, ACETYLCHOLINESTERAS… LETT… 10.2…    18  3.6 
##  7 GULCIN I  2019 THE EFFECTS OF SOME ANTIBIOTICS FROM CEPHALOSPORIN GROUPS ON THE ACETYLCHOLIN… ARCH… 10.1…    47  9.4 
##  8 GULCIN I  2019 PHYTOCHEMICAL CONTENT, ANTIOXIDANT ACTIVITY, AND ENZYME INHIBITION EFFECT OF … JOUR… 10.1…    93 18.6 
##  9 GULCIN I  2019 SYNTHESIS, CHARACTERIZATION, CRYSTAL STRUCTURES, THEORETICAL CALCULATIONS AND… JOUR… 10.1…    60 12   
## 10 GULCIN I  2019 SAR EVALUATION OF DISUBSTITUTED TACRINE ANALOGUES AS PROMISING CHOLINESTERASE… INDI… 10.5…     9  1.8 
## # ℹ 176 more rows
## 
## $graph
…
